<svg width="20" height="20" viewBox="0 0 20 20" xmlns="http://www.w3.org/2000/svg">
    <path d="M19.39 11.92H7.014l5.574 5.575-2.227 2.227-7.312-7.313-.025.024-2.228-2.228.025-.024-.006-.005L3.04 7.95l.006.005L10.34.66l2.228 2.227L6.687 8.77H19.39v3.15z" fill="#5FA2DB" fill-rule="evenodd"/>
</svg>
