<svg width="16" height="16" viewBox="0 0 16 16" xmlns="http://www.w3.org/2000/svg">
    <path d="M10.263 11.394 8 9.131l-2.263 2.263-1.131-1.131L6.869 8 4.606 5.737l1.131-1.131L8 6.869l2.263-2.263 1.131 1.131L9.131 8l2.263 2.263-1.131 1.131zm3.394-9.05a8.003 8.003 0 0 0-11.314 0 8.003 8.003 0 0 0 0 11.313 8.003 8.003 0 0 0 11.314 0 8.003 8.003 0 0 0 0-11.314z" fill="#F5574A" fill-rule="evenodd"/>
</svg>
