<svg width="245" height="27" viewBox="0 0 245 27" xmlns="http://www.w3.org/2000/svg">
    <path d="M54.514 0a.834.834 0 0 1 .723 1.252L52.93 5.247a.833.833 0 0 1-.723.418h-9.964a.835.835 0 0 0-.834.834v19.345c0 .46-.374.834-.834.834h-3.21a.835.835 0 0 1-.835-.834V6.499a.835.835 0 0 0-.833-.834H25.064a.834.834 0 0 1-.723-.418l-2.307-3.995A.835.835 0 0 1 22.757 0zm-40.02.468a.834.834 0 0 1 1.444 0l7.19 12.454 7.191 12.453a.835.835 0 0 1-.723 1.252H.836a.834.834 0 0 1-.723-1.252l7.19-12.453zm202.81 4.798c2.35 0 4.468.783 5.897 2.349l-1.083 1.083c-1.313-1.336-2.926-1.912-4.769-1.912-3.893 0-6.819 2.856-6.819 6.68 0 3.825 2.926 6.681 6.82 6.681 1.842 0 3.455-.576 4.768-1.935l1.083 1.083c-1.429 1.567-3.548 2.372-5.92 2.372-4.839 0-8.432-3.477-8.432-8.2 0-4.723 3.593-8.2 8.454-8.2zm-144.599.138 7.372 16.126H78.28l-1.935-4.308H67.36l-1.935 4.308h-1.773l7.371-16.126h1.682zm21.22 0c5.16 0 8.639 3.317 8.639 8.062 0 4.746-3.479 8.064-8.639 8.064H87.36V5.404h6.565zm18.478 0 7.003 11.956 6.935-11.956h1.405v16.125h-1.636V8.63l-6.335 10.85h-.806l-6.335-10.781v12.831h-1.636V5.404h1.405zm26.91 0v16.125h-1.704V5.404h1.705zm11.267 0 10.39 13.085V5.404h1.681v16.125h-1.405L150.879 8.445v13.084h-1.705V5.404h1.406zm32.44 0v1.474h-5.669V21.53h-1.704V6.878h-5.667V5.404h13.04zm18.384 0v1.474h-9.352v5.737h8.34v1.451h-8.34v5.99h9.698v1.474h-11.403V5.404h11.057zm31.75 0v7.187h10.091V5.404h1.682v16.125h-1.682v-7.44h-10.09v7.44h-1.705V5.404h1.705zM15.939 10.05a.834.834 0 0 0-1.445 0l-2.952 5.115-2.953 5.113a.835.835 0 0 0 .723 1.252h11.81a.834.834 0 0 0 .722-1.252l-2.953-5.113zm77.895-3.172h-4.77v13.177h4.77c4.284 0 7.05-2.718 7.05-6.589 0-3.87-2.766-6.588-7.05-6.588zm-21.98.3-3.87 8.662h7.74l-3.87-8.662z" fill="#FFF" fill-rule="evenodd"/>
</svg>
