<svg width="112" height="112" viewBox="0 0 12 12" xmlns="http://www.w3.org/2000/svg" fill="none">
    <path d="m5.85 9.075-3.439 1.808.657-3.83-2.782-2.71 3.845-.56L5.85.3l1.72 3.484 3.844.558-2.782 2.712.657 3.829z"
          stroke="#142F41" stroke-width=".765" fill-rule="evenodd" opacity=".9"/>
</svg>
